%YAML 1.1
%TAG !u! tag:unity3d.com,2011:
--- !u!114 &11400000
MonoBehaviour:
  m_ObjectHideFlags: 0
  m_CorrespondingSourceObject: {fileID: 0}
  m_PrefabInternal: {fileID: 0}
  m_GameObject: {fileID: 0}
  m_Enabled: 1
  m_EditorHideFlags: 0
  m_Script: {fileID: 680703436, guid: 4f0627da958b4bb78c260446066f065f, type: 3}
  m_Name: ProBuilderPreferences
  m_EditorClassIdentifier: 
  m_Bool_keys:
  - pb_SmoothingGroupEditor::m_PreviewDither
  - pb_SmoothingGroupEditor::m_ShowPreview
  - pb_SmoothingGroupEditor::m_DrawNormals
  m_Int_keys:
  - pbDefaultEditLevel
  - pbDefaultSelectionMode
  - pb_GIWorkflowMode
  - pbHandleAlignment
  m_Float_keys:
  - pbEditorScroll.x
  - pbEditorScroll.y
  - pb_SmoothingGroupEditor::m_PreviewOpacity
  - pb_SmoothingGroupEditor::m_NormalsSize
  m_String_keys: []
  m_Color_keys: []
  m_Material_keys: []
  m_Bool_values: 000000
  m_Int_values: 00000000020000000000000000000000
  m_Float_values:
  - 0
  - 0
  - 0.5
  - 0.099999994
  m_String_values: []
  m_Color_values: []
  m_Material_values: []
